84 47825 324
78 71208 340
94 46820 324
87 93487 351
50 65214 340
63 17038 276
91 42110 324
64 53277 340
41 14235 276
73 81805 351
12 5801 238
68 90968 351
83 38751 324
63 69796 340
68 12510 268
30 15843 276
23 35773 324
70 20686 279
94 60237 340
12 11173 268
30 10442 262
22 83210 351
85 13676 276
99 33797 308
16 5145 238
14 7223 262
92 97465 351
57 56858 340
63 31 113
97 99990 351
6 62614 340
85 72874 340
37 49688 324
47 54382 340
14 54536 340
25 55582 340
83 40568 324
15 64332 340
35 22085 279
44 28957 308
88 33937 308
77 84977 351
89 7773 262
4 41022 324
55 41892 324
33 20343 279
77 30249 308
40 49697 324
27 33581 308
95 36666 324
96 89839 351
35 99897 351
68 4444 238
98 31455 308
18 82563 351
53 73961 340
2 69991 340
87 21306 279
66 47578 324
45 85566 351
41 50144 324
32 40780 324
98 45930 324
82 7134 262
10 14762 276
68 87831 351
98 82850 351
87 8412 262
7 98762 351
20 60625 340
29 73678 340
33 71230 340
4 40330 324
71 94835 351
9 28266 308
41 50780 324
97 6518 262
19 5606 238
47 2242 183
22 78760 351
80 29941 308
65 95005 351
42 1127 179
94 46889 324
35 90085 351
25 28021 308
88 15503 276
44 54238 340
28 65188 340
60 17143 276
33 76280 340
38 18667 279
76 79686 351
75 8648 262
59 37012 324
30 98930 351
36 806 171
19 26547 282
44 70756 340
29 75222 340
77 54351 340
44 98008 351
14 75895 340
7 72489 340
5 48125 324
29 81341 351
70 77758 351
18 80605 351
25 97682 351
71 39374 324
91 23466 279
73 48450 324
45 79045 351
6 73004 340
55 95235 351
70 57449 340
43 24873 282
98 39646 324
56 54509 340
49 88656 351
23 48571 324
100 442 144
47 43409 324
41 57177 340
12 43703 324
6 49188 324
62 81659 351
79 38242 324
21 92839 351
45 57311 340
23 32876 308
9 84465 351
83 17023 276
25 5322 238
63 9651 262
1 47567 324
53 37378 324
80 57953 340
69 2458 183
74 95280 351
82 85083 351
34 60131 340
61 88910 351
100 27450 308
100 83021 351
60 43228 324
14 72923 340
91 20450 279
27 25209 282
85 34879 311
423367 331571 449
447283 859295 525
758075 381582 509
518144 220933 470
672892 420533 509
708878 93059 509
105479 33423 351
452434 264948 449
405461 625807 470
168933 469702 449
881805 322412 525
698478 668325 442
577462 401776 470
865412 46148 525
519116 233907 470
959840 942482 414
77535 919180 525
313836 347667 441
812820 831979 450
568599 997769 525
764569 789535 468
602885 870048 525
822957 55320 509
647053 740475 504
681127 815985 504
210179 74991 383
650454 908656 525
743315 739974 393
310433 608729 470
786121 341606 509
354693 258021 441
284089 944283 525
689258 109982 509
291952 502079 449
941961 372608 525
499849 218589 449
162144 614792 470
88638 985101 525
670111 247748 509
725577 351239 509
575790 447813 470
426230 226246 449
868526 681602 525
966219 691016 525
802388 264399 509
32623 157082 383
522419 828767 509
613423 723735 509
938749 905374 476
225815 392769 443
790039 237722 509
611357 952183 525
852513 212053 525
449343 522625 470
459800 686977 509
385922 35592 443
134792 324209 443
773893 3319 509
517868 252171 470
694335 320258 509
516569 239015 470
477339 551046 470
67784 90763 351
274782 6534 443
508194 12654 449
911358 298235 525
250375 522716 470
762475 614945 509
246826 211819 443
649628 706626 504
898795 35551 525
254275 545644 470
871815 28169 525
61021 389684 443
280339 267413 407
709941 308965 509
506427 699338 509
860010 574210 525
302158 134793 443
92801 810352 509
147447 4160 375
620644 909877 525
38934 895176 525
524824 285759 470
106996 174453 383
504442 517848 470
722059 758716 424
63494 593875 470
298942 636570 509
495616 579280 470
903982 205559 525
888245 410410 525
416954 260314 449
496678 719111 509
395107 589478 470
41522 54611 340
105696 662165 509
964487 656685 525
557342 1370 470
454501 176395 449
175822 958943 525
694243 409938 509
229718 269794 443
3814 528660 470
906363 499430 525
619997 810346 509
217046 508243 449
732813 633999 504
768557 229492 509
353111 675721 509
331028 394633 441
730331 948779 525
568855 206877 470
605465 638255 509
208247 59967 383
326707 896124 525
530967 533007 377
306064 760685 509
802800 821933 450
801402 221222 509
833420 421400 509
543625 562523 452
441701 788496 509
196523 722315 509
17989 61692 340
910093 861072 445
968380 152483 525
809852 49294 509
359359 927374 525
199606 79663 383
499399 526313 470
487845 30367 449
59321 793908 509
303109 374179 441
127900 104512 354
107458 473378 449
37970 651083 509
35902 991726 525
439580 232425 449
714042 969624 525
806172 624136 509
830698 774553 468
776618 152609 509
335904 648034 509
592041 535510 452
727697 91441 509
61824 215543 383
633863 633200 323
521508 936972 525
7380 161465 383
