937543 234799 525
285109 789057 509
614504 411112 470
300218 595185 470
7298 933567 525
337857 656648 509
248629 639360 509
225773 532660 470
67310 201516 383
764751 185799 509
436603 74430 449
961835 589582 525
666722 343596 509
615795 926819 525
658083 271536 509
622497 685380 509
845664 668453 525
694895 200190 509
901192 443746 525
974195 903309 507
494534 34195 449
281417 177940 443
130272 930466 525
411061 637673 509
458906 126784 449
358845 423393 449
231563 652063 509
976727 914013 507
762099 623246 509
42397 820345 509
976930 756305 525
181542 677187 509
499063 114081 449
126867 143581 375
531161 791972 509
55202 550722 470
787381 705713 468
96422 483871 449
715700 385713 509
278026 558782 470
963775 571756 525
858264 541157 525
59550 565124 470
478484 304544 449
586555 891490 525
675194 240417 509
29804 174351 383
503104 471836 426
399915 705679 509
180721 453142 449
545174 79992 470
468799 97145 449
378822 554882 470
712598 179915 509
105781 454680 449
493605 451432 444
521703 749921 509
934452 382033 525
694280 32389 509
965445 59577 525
314694 268338 407
689987 192755 509
792780 31393 509
19690 679947 509
230143 42935 386
254028 367306 441
892400 147881 525
510214 438594 444
766923 323624 509
368897 601906 470
99513 395516 443
497148 150778 449
369093 479622 449
999659 383517 525
621900 493748 470
26579 553853 470
840823 534085 525
979539 551336 525
57124 831897 509
225752 718215 509
383539 814188 509
274702 766185 509
848954 277148 525
207754 381991 443
299761 891675 525
992176 373973 525
411927 65081 449
1431 246742 443
598211 533357 452
696010 352375 509
387234 638381 509
732034 118615 509
760088 151976 509
879989 862251 432
113340 247488 443
555817 363368 470
963682 851087 507
825549 880367 525
612938 358867 470
734914 982627 525
358010 913726 525
203315 867560 525
452979 218744 449
998914 993866 440
497485 152849 449
769645 584157 509
196214 241456 443
600475 812754 509
564531 972520 525
810555 357463 509
301730 239710 407
672274 856245 525
389261 408105 405
310123 165384 443
180243 769067 509
794079 855101 525
891729 199393 525
194602 963106 525
250315 45207 443
34660 881177 525
131688 44396 354
749363 955969 525
471976 829236 509
440263 753466 509
920926 724780 525
537848 288247 470
912275 475582 525
338829 369132 441
677787 221422 509
184662 706754 509
600202 239106 470
586176 501811 470
109831 169265 383
754320 735917 424
984716 658844 525
219597 832056 509
712569 921969 525
221821 319824 443
842027 637115 525
372022 925118 525
606832 452391 470
294349 263165 407
707554 938394 525
80252 795063 509
875552 133124 525
992721 357486 525
881542 252160 525
151609 869390 525
403275 247679 441
960981 356723 525
365306 27968 443
638474 875842 525
855010 585653 525
801280 297179 509
380770 956489 525
320940 849627 525
261820 50402 443
935420 764467 525
817716 310790 509
335532 258218 407
296937 192035 443
130908 673665 509
827305 181409 509
5749 852555 525
469412 223847 449
837330 169937 509
988440 545181 525
200663 941712 525
751656 749668 362
109685 942171 525
940190 183376 525
894205 130956 525
610195 12208 470
256448 825638 509
608791 663546 509
118738 867683 525
940561 593599 525
965578 549978 525
661498 189969 509
176609 601913 470
607040 656670 509
78026 828509 509
130445 271095 443
860152 70032 525
835820 581814 509
387420 43224 443
924094 957205 507
893267 806731 525
120697 60258 354
687703 55005 509
141971 287598 443
157769 155450 383
733562 471239 509
816307 708430 468
738162 418493 509
122409 339954 443
683743 747618 504
305169 841307 525
590387 204936 470
773 418898 449
504454 368679 449
788834 545113 509
52908 993510 525
366388 844076 525
800029 916459 525
756085 633937 504
763262 710272 424
919785 603632 525
332096 553125 470
433481 204651 449
995672 307768 525
695464 972708 525
774951 134867 509
817145 88395 509
174820 430135 449
748393 531431 509
48353 716902 509
932079 281581 525
312930 187503 443
959384 755202 525
796874 170773 509
310379 259121 407
109328 259070 443
802683 747942 468
591034 526723 452
917354 813174 525
853357 948344 507
349062 928933 525
642917 48871 509
655820 798939 504
401144 221664 443
500017 788077 509
652361 37242 509
843926 91759 525
519971 70987 470
767836 446323 509
166097 620790 470
883875 651517 525
735751 190595 509
280018 805266 509
872534 206973 525
485577 674433 509
71984 503752 449
45594 93521 351
636796 281505 509
343596 621679 470
842828 759882 525
413016 526736 470
880453 628210 525
167747 747965 509
